<svg xmlns="http://www.w3.org/2000/svg" width="27.344" height="34.485" viewBox="0 0 27.344 34.485">
  <g id="Group_1534" data-name="Group 1534" transform="translate(-1407.333 -3340.933)">
    <g id="Group_1402" data-name="Group 1402" transform="translate(1389 2651.04)">
      <path id="Path_11897" data-name="Path 11897" d="M25,1901.349l13.026-6.015,12.3,6.015v13.614s.633,6.648-12.3,12.664C26.266,1923.194,25,1914.963,25,1914.963Z" transform="translate(-5.667 -1204.333)" fill="none" stroke="#fff" stroke-width="2"/>
      <path id="Path_11898" data-name="Path 11898" d="M25.333,1913.024l5.895,5.895,7.141-11.585" transform="translate(1.111 -1205.371)" fill="none" stroke="#fff" stroke-linecap="round" stroke-width="2"/>
    </g>
  </g>
</svg>
